ST 558 Homework 4
…
Parse what is returned and find your way to the data frame that has the actual article information in it (check content). Note the first column should be a list column.

#Parse through data using fromJSON function from jsonlite package.
parsed_ed_data <- fromJSON(rawToChar(return_ed_data$content))
#Convert the article information to a tibble.
ed_info <- as_tibble(parsed_ed_data$articles)
#Print out the tibble with article information.
ed_info

# A tibble: 100 × 8
   source$id $name author title description url   urlToImage publishedAt content
   <chr>     <chr> <chr>  <chr> <chr>       <chr> <chr>      <chr>       <chr>  
 1 <NA>      [Rem… <NA>   [Rem… "[Removed]" http… <NA>       1970-01-01… "[Remo…
 2 <NA>      Yaho… Devin… Enga… "We're gea… http… <NA>       2024-06-07… "If yo…
 3 wired     Wired Chris… Bank… "Extreme w… http… https://m… 2024-06-17… "Clean…
 4 the-verge The … Tom W… Goog… "Google is… http… https://c… 2024-06-05… "Googl…
 5 <NA>      Gizm… Lucas… Elon… "We all kn… http… https://i… 2024-06-14… "We al…
 6 <NA>      BBC … <NA>   Anal… "Political… http… https://i… 2024-06-05… "Chris…
 7 <NA>      BBC … <NA>   Who … "Our guide… http… https://i… 2024-06-11… "John …
 8 <NA>      BBC … <NA>   Scot… "John Swin… http… https://i… 2024-06-11… "By Me…
 9 <NA>      BBC … <NA>   Full… "Education… http… https://i… 2024-06-16… "By Ro…
10 <NA>      BBC … <NA>   Plan… "Plans to … http… https://i… 2024-06-03… "Betha…
# ℹ 90 more rows
…
#Run the function twice.
#Query to API for education data from June 18th 2024 to present.
ed_query <- api_query("education", "2024-06-18", "53ad0f05e7ae4a3298cdbdb8d0810afb")
ed_query

# A tibble: 80 × 8
   source$id $name author title description url   urlToImage publishedAt content
   <chr>     <chr> <chr>  <chr> <chr>       <chr> <chr>      <chr>       <chr>  
 1 abc-news  ABC … Kiara… Bide… "A federal… http… https://i… 2024-06-18… "A fed…
 2 <NA>      KQED  Nimah… Each… "Understan… http… https://c… 2024-06-18… "Me: “…
 3 <NA>      Mcki… <NA>   Neth… "The Nethe… http… https://w… 2024-06-18… "For m…
 4 <NA>      Neat… Miss … Zach… "Zach Anne… http… <NA>       2024-06-18… "Zach …
 5 <NA>      [Rem… <NA>   [Rem… "[Removed]" http… <NA>       1970-01-01… "[Remo…
 6 <NA>      BBC … <NA>   Coun…  <NA>       http… https://i… 2024-06-18… "Sarah…
 7 <NA>      Yaho… Nicol… Broo… "(Bloomber… http… https://s… 2024-06-18… "(Bloo…
 8 <NA>      Paul… Gerar… Dies… "Prime min… http… https://p… 2024-06-18… "Prime…
 9 <NA>      The … Nina … ‘IMM… "A hotel w… http… https://u… 2024-06-18… "A hot…
10 breitbar… Brei… Warne… Fede… "A federal… http… https://m… 2024-06-18… "A fed…
# ℹ 70 more rows

#Querty to API for election data from June 1st 2024 to present.
election_query <- api_query("election", "2024-06-01", "53ad0f05e7ae4a3298cdbdb8d0810afb")
election_query

# A tibble: 100 × 8
   source$id $name author title description url   urlToImage publishedAt content
   <chr>     <chr> <chr>  <chr> <chr>       <chr> <chr>      <chr>       <chr>  
 1 <NA>      [Rem… <NA>   [Rem… [Removed]   http… <NA>       1970-01-01… "[Remo…
 2 <NA>      Yaho… Karis… News… Pew Resear… http… <NA>       2024-06-12… "If yo…
 3 wired     Wired Vitto… A Fo… A vast maj… http… https://m… 2024-06-03… "On Ma…
 4 wired     Wired Morga… Russ… A European… http… https://m… 2024-06-07… "With …
 5 wired     Wired Maken… A Bi… Frank McCo… http… https://m… 2024-06-13… "By mi…
 6 wired     Wired Leah … AI C… Meet AI St… http… https://m… 2024-06-13… "Victo…
 7 <NA>      Gizm… Matt … Bide… President … http… https://i… 2024-06-03… "Presi…
 8 <NA>      BBC … <NA>   Part… Labour and… http… https://i… 2024-06-09… "Labou…
 9 <NA>      BBC … <NA>   Seve… D-Day, NHS… http… https://i… 2024-06-07… "Repre…
10 <NA>      BBC … <NA>   ‘I’m… Brits livi… http… https://i… 2024-06-12… "By Ya…
# ℹ 90 more rows
